2021-05-30 18:36:32 Come into /new_homework.php, guest=0
2021-05-30 18:36:32 Сохранить
2021-05-30 18:36:55 Come into /new_homework.php, guest=0
2021-05-30 18:36:55 Сохранить
2021-05-30 18:37:09 Come into /new_homework.php, guest=0
2021-05-30 18:37:09 Сохранить
2021-05-30 18:37:38 Come into /new_homework.php, guest=0
2021-05-30 18:38:03 Come into /new_homework.php, guest=0
2021-05-30 18:38:14 Come into /new_homework.php, guest=0
2021-05-30 18:38:14 2021-05-21
2021-05-30 18:38:52 Come into /new_homework.php, guest=0
2021-05-30 18:38:52 2021-05-21
2021-05-30 18:38:56 Come into /student_page.php, guest=0
2021-05-30 18:39:07 Come into /new_homework.php, guest=0
2021-05-30 18:39:21 Come into /new_homework.php, guest=0
2021-05-30 18:39:21 2021-05-25
2021-05-30 18:39:25 Come into /student_page.php, guest=0
2021-05-30 18:41:29 Come into /student_page.php, guest=0
2021-05-30 18:41:32 Come into /new_homework.php, guest=0
2021-05-30 18:41:51 Come into /new_homework.php, guest=0
2021-05-30 18:41:51 2021-04-29
2021-05-30 18:41:53 Come into /student_page.php, guest=0
2021-05-30 18:43:37 Come into /student_page.php, guest=0
2021-05-30 18:44:00 Come into /teacher_page.php, guest=0
2021-05-30 18:45:24 Come into /teacher_page.php, guest=0
2021-05-30 18:45:27 Come into /student_page.php, guest=0
2021-05-30 18:45:37 user klimuhina_av role: S
2021-05-30 18:45:37 Come into /student_page.php, guest=0
2021-05-30 18:45:50 Come into /applications.php, guest=0
2021-05-30 18:45:54 Come into /contacts.php, guest=0
2021-05-30 18:45:56 Come into /about_us.php, guest=0
2021-05-30 18:45:57 Come into /contacts.php, guest=0
2021-05-30 18:45:58 Come into /applications.php, guest=0
2021-05-30 18:47:51 Come into /about_us.php?guest=1, guest=
2021-05-30 18:47:54 Come into /contacts.php, guest=1
2021-05-30 18:47:55 Come into /applications.php, guest=1
2021-05-30 18:48:01 Come into /about_us.php, guest=1
2021-05-30 18:48:04 Come into /contacts.php, guest=1
2021-05-30 18:48:06 Come into /applications.php, guest=1
2021-05-30 18:48:15 user krutilina_va role: T
2021-05-30 18:48:15 Come into /teacher_page.php, guest=0
2021-05-30 18:48:19 Come into /teacher_page.php, guest=0
2021-05-30 18:48:22 Come into /student_page.php, guest=0
2021-05-30 18:48:29 Come into /teacher_page.php, guest=0
2021-05-30 18:56:29 Come into /applications.php, guest=0
2021-05-30 18:56:37 Come into /applications.php, guest=0
2021-05-30 18:56:56 Come into /new_application.php, guest=0
2021-05-30 19:10:21 Come into /new_application.php, guest=0
2021-05-30 19:10:26 Come into /about_us.php?guest=1, guest=
2021-05-30 19:10:47 Come into /about_us.php?guest=1, guest=1
2021-05-30 19:10:50 Come into /about_us.php?guest=1, guest=
2021-05-30 19:10:58 user klimuhina_av role: S
2021-05-30 19:10:58 Come into /student_page.php, guest=0
2021-05-30 19:11:08 user krutilina_va role: T
2021-05-30 19:11:08 Come into /teacher_page.php, guest=0
2021-05-30 19:11:13 Come into /applications.php, guest=0
2021-05-30 19:12:16 Come into /applications.php, guest=0
2021-05-30 19:12:44 Come into /applications.php, guest=0
2021-05-30 19:24:16 Come into /student_page.php, guest=0
2021-05-30 19:24:35 Come into /applications.php, guest=0
2021-05-30 19:24:41 Come into /applications.php, guest=0
2021-05-30 19:24:46 Come into /applications.php, guest=0
2021-05-30 19:24:49 Come into /applications.php, guest=0
2021-05-30 19:25:15 Come into /applications.php, guest=0
2021-05-30 19:25:19 Come into /new_application.php, guest=0
2021-05-30 19:25:40 Come into /applications.php, guest=0
2021-05-30 19:25:42 Come into /teacher_page.php, guest=0
2021-05-30 19:28:38 Come into /new_application.php, guest=0
2021-05-30 19:28:49 Come into /new_application.php, guest=0
2021-05-30 19:29:01 Come into /new_application.php, guest=0
2021-05-30 19:29:14 Come into /new_application.php, guest=0
2021-05-30 19:29:21 Come into /new_application.php, guest=0
2021-05-30 19:29:29 Come into /new_application.php, guest=0
2021-05-30 19:29:52 Come into /applications.php, guest=0
2021-05-30 19:29:59 Come into /about_us.php, guest=0
2021-05-30 19:30:00 Come into /contacts.php, guest=0
2021-05-30 19:30:01 Come into /new_application.php, guest=0
2021-05-30 20:24:05 Come into /about_us.php, guest=0
2021-05-30 20:27:36 Come into /contacts.php, guest=0
2021-05-30 20:29:18 Come into /contacts.php, guest=0
2021-05-30 20:29:29 Come into /contacts.php, guest=0
2021-05-30 20:33:00 Come into /contacts.php, guest=0
2021-05-30 20:35:32 Come into /contacts.php, guest=0
2021-05-30 20:35:49 Come into /contacts.php, guest=0
2021-05-30 20:48:08 Come into /about_us.php, guest=0
2021-05-30 20:53:42 Come into /about_us.php, guest=0
2021-05-30 21:00:09 Come into /about_us.php, guest=0
2021-05-30 21:00:19 Come into /about_us.php, guest=0
